<svg width="166" height="178" viewBox="0 0 166 178" fill="none" xmlns="http://www.w3.org/2000/svg">
<path fill-rule="evenodd" clip-rule="evenodd" d="M116.583 4.38556C117.173 2.23329 119.088 0.787561 121.8 0.590475C122.704 0.524947 123.697 0.59809 124.759 0.83012C131.841 2.37782 156.049 29.3616 146.024 48.5523L146.765 52.0152L156.254 60.2915C162.654 66.1229 162.471 71.1991 162.18 79.2587C162.157 79.8883 162.134 80.5362 162.113 81.2041C170.025 85.0052 162.497 94.6388 157.726 100.743C156.802 101.927 155.981 102.977 155.396 103.827C152.824 106.797 152.232 109.335 151.427 112.785C151.226 113.645 151.012 114.562 150.751 115.556C149.53 120.206 146.305 123.603 139.269 125.805C139.269 125.805 135.865 124.07 134.702 125.078C133.554 126.073 131.435 126.079 131.435 126.079L131.531 128.463L131.266 128.482C123.719 129.042 116.619 129.569 109.456 126.563L106.956 131.067C96.4856 145.021 85.0594 149.909 67.6455 153.053L67.7919 154.596C75.1369 166.161 97.9653 164.895 104.313 152.887L106.893 148.006C112.14 146.829 112.429 148.695 113.089 152.958C113.221 153.807 113.367 154.75 113.57 155.784L124.309 156.256L124.378 156.419C125.59 159.283 126.127 160.552 124.598 163.569C124.792 163.662 124.988 163.753 125.185 163.843C126.724 164.553 128.269 165.265 128.4 167.218C128.235 169.067 126.979 169.803 125.633 170.591C125.06 170.927 124.471 171.272 123.942 171.717C125.378 174.831 125.828 176.15 123.404 177.221C120.103 178.118 113.333 177.097 107.151 176.164C103.74 175.65 100.508 175.163 98.1359 175.039C93.271 174.786 88.4846 174.73 83.7116 174.674C75.8938 174.583 68.1122 174.492 60.0816 173.534C50.9253 170.312 45.4793 165.551 42.5002 155.675L36.3009 157.308C25.8372 162.099 3.50421 165.305 0.5625 147.384C6.81252 154.063 17.0649 157.748 25.3299 152H26V104.665C26.0689 104.628 26.1379 104.592 26.2072 104.555C29.6423 102.742 33.4866 100.712 35.2942 98.1469C37.4087 95.1437 37.9542 92.0467 36.0218 87.8285L33.6075 87.8396L30.742 91.6867C30.9863 90.5157 30.923 89.5446 30.854 88.4847C30.822 87.9936 30.7888 87.4833 30.7843 86.9252L27.8864 86.0649C27.2405 86.4476 26.6145 86.7945 26 87.1274V82.949C28.1224 81.3295 29.9816 79.4712 31.0147 76.8171C31.0147 76.8171 31.1224 80.5088 32.1038 81.9643C32.4007 82.4045 33.4249 82.8571 33.4249 82.8571C36.4204 81.0644 37.754 79.3424 38.9876 75.865L38.9441 83.4161C40.9022 89.4096 42.5605 96.3321 37.8825 101.652C37.3844 102.03 36.9146 102.349 36.4931 102.636C34.5129 103.984 33.5962 104.607 35.7988 107.13L40.7567 107.185C46.7354 102.109 53.6313 98.423 61.7038 97.9549C62.1313 97.983 62.5588 98.0112 62.9862 98.0393C70.4369 98.5301 77.8862 99.0208 85.3497 99.2868C85.3919 96.7502 84.7262 96.4056 82.4462 95.2253C82.3606 95.181 82.2728 95.1355 82.1826 95.0887C82.1689 94.9705 82.1552 94.853 82.1416 94.7362C81.7331 91.2303 81.4017 88.3868 82.9323 84.9965C84.5813 82.8797 85.0662 81.8343 84.5868 79.0026C82.7738 74.9841 81.2437 71.431 81.2951 66.8922C81.3933 66.9177 81.4913 66.9432 81.5891 66.9687C83.8741 67.5638 86.0566 68.1321 88.4631 67.9555C87.313 64.4501 87.0644 61.8727 88.1833 58.1522C88.4087 58.4728 88.6152 58.7748 88.8087 59.0578C90.4664 61.4819 91.1762 62.5199 94.7422 62.0599L99.4364 55.325C99.5088 55.2834 99.5814 55.2417 99.6543 55.1998C103.245 53.1386 107.348 50.783 104.736 46.0187L97.947 35.3572C97.1613 34.2152 96.4271 33.1777 95.7447 32.2134C91.3753 26.0389 89.1295 22.8653 89.0897 14.4634C88.9903 -6.53747 109.538 1.05792 117.251 15.7548C117.172 14.5934 116.996 13.3219 116.817 12.0334C116.43 9.24969 116.033 6.38701 116.583 4.38556ZM129.593 45.526C128.185 34.4229 110.178 5.36203 97.8267 5.87496C97.4288 5.89201 97.036 5.93784 96.6506 6.01752C90.1974 8.61539 92.3011 18.4765 94.722 23.6204C97.3724 29.4504 100.907 34.7891 104.447 40.1361C106.093 42.6224 107.74 45.1105 109.3 47.6505C111.286 49.5327 113.661 49.9355 116.568 49.4578C116.877 51.0672 116.82 52.5574 116.49 54.1948C114.471 54.1427 114.42 54.1295 114.249 52.0019C112.445 51.7566 110.951 52.2776 109.289 52.8577C108.882 52.9997 108.464 53.1454 108.03 53.2841C106.908 53.8683 106.004 54.4803 105.119 55.0791C103.979 55.8505 102.871 56.6002 101.371 57.2411C100.513 59.3403 99.1321 61.1276 97.746 62.9221C97.1338 63.7146 96.5206 64.5085 95.9508 65.3313L94.9887 69.7464C93.2837 67.601 92.8484 66.9257 92.4947 66.3769C92.0611 65.7041 91.75 65.2215 89.3724 62.4538C89.5679 63.2503 89.8135 64.0568 90.0608 64.8688C90.8941 67.6056 91.747 70.4063 90.7675 73.1093L84.587 70.9781C84.9251 71.8843 85.2637 72.7217 85.5869 73.5207C86.8942 76.7537 87.948 79.3599 87.692 83.3584C87.7457 83.3799 87.7989 83.4012 87.8518 83.4223C89.3727 84.0301 90.5932 84.5179 90.894 86.2611C84.68 85.5097 84.7819 87.1569 85.0853 92.0637C85.123 92.6732 85.1638 93.333 85.1961 94.0448C85.2427 94.4534 86.0906 94.9351 86.9124 95.402C87.6723 95.8338 88.41 96.2529 88.4712 96.5897C88.5373 96.9536 88.1872 97.4569 87.8423 97.9528C87.493 98.4549 87.1491 98.9493 87.2481 99.2835C88.3811 103.107 91.026 105.82 96.8871 110.222C97.0237 113.259 97.0335 115.935 95.8648 118.841L95.7346 119.007C90.5092 125.654 85.2756 132.312 79.2216 138.248C79.2581 141.495 78.9258 142.987 79.5237 143.753C80.0733 144.456 81.4088 144.546 84.5392 144.821C93.1827 141.653 103.533 135.751 102.694 127.408L99.9716 124.443C101.559 123.774 104.763 123.428 106.142 123.279L106.197 123.273C106.239 121.379 106.146 120.217 106.032 119.344C106.692 120.783 108.276 122.949 111.712 124.679C115.728 126.624 119.945 126.534 124.241 126.441C125.035 126.424 125.833 126.407 126.632 126.402L128.921 125.739L129.638 124.453L128.426 123.246L126.074 122.318L123.455 121.219L122.865 120.174L122.969 117.56L123.716 115.54C123.353 115.302 122.945 115.098 122.543 114.897C121.863 114.557 121.201 114.227 120.808 113.754C120.653 113.549 120.456 113.257 120.228 112.918C118.884 110.921 116.45 107.304 114.886 110.274C114.194 103.964 118.415 104.973 118.662 105.614C118.76 105.866 118.774 106.207 118.791 106.616C118.837 107.735 118.905 109.364 120.753 111.077C120.991 111.298 121.198 111.53 121.399 111.756C121.892 112.312 122.353 112.83 123.158 113.041C124.682 113.441 126.173 113.456 127.651 113.471C129.57 113.491 131.468 113.51 133.394 114.37L133.179 113.806C131.745 110.378 135.213 110.115 136.192 110.04C136.338 110.029 136.429 110.022 136.439 110.01C136.469 109.972 136.486 109.899 136.495 109.809C136.632 108.023 136.864 105.627 137.069 106.566C137.095 106.686 137.121 106.87 137.154 107.098C137.272 107.913 137.471 109.285 138.016 110.257C138.291 110.749 138.93 111.357 139.388 111.54C139.47 111.59 140.872 111.445 141.924 111.336C142.512 111.275 142.991 111.226 143.071 111.228C141.746 111.702 140.31 112.275 139.617 113.523C139.592 114.695 139.326 116.738 136.043 116.08C137.252 117.827 138.37 120.656 137.633 122.675L139.92 123.412L142.981 121.473C157.081 108.95 143.813 98.7426 129.931 101.737L130.128 104.584C128.147 103.908 127.792 103.668 127.428 101.458C125.156 99.7571 124.144 98.1808 123.356 95.2964C123.156 95.2517 122.957 95.208 122.757 95.1644C121.226 94.8295 119.715 94.4989 118.303 93.7722L115.637 94.0698L115.112 92.332C113.806 91.4928 113.517 91.3326 112.071 92.1586C111.2 88.8923 109.18 87.5234 105.849 87.7495L105.933 86.6329L111.816 86.6161C112.865 83.4966 119.27 70.5966 126.857 69.9464C129.533 69.672 131.926 70.0066 133.136 72.8804C134.433 73.2229 135.796 72.8415 137.17 72.4569C138.45 72.099 139.738 71.7384 140.992 71.9564C140.658 72.1102 140.311 72.2446 139.967 72.3781C138.714 72.8637 137.493 73.3373 137.021 74.6874C137.627 74.7878 138.232 74.8745 138.834 74.9607C141.581 75.3543 144.263 75.7384 146.618 77.3822C145.945 77.3197 145.167 77.1941 144.336 77.06C141.288 76.5675 137.534 75.9612 135.653 77.9528C135.915 81.2115 135.048 89.0064 130.416 93.1774C129.226 94.2486 127.779 95.0853 126.026 95.5538L128.291 98.8014C129.556 98.6114 138.556 97.4057 145.484 100.445C145.522 100.463 145.619 100.108 145.787 99.4909C146.793 95.7898 150.36 82.6716 159.318 84.1758C159.38 83.0769 159.498 81.9397 159.618 80.7854C160.063 76.4962 160.533 71.9717 158.258 68.3006C150.903 56.1505 135.878 48.5116 122.836 50.9361C121.283 43.3417 113.67 27.0093 104.048 19.4661L104.19 17.6559C109.439 21.762 114.263 26.2006 117.625 31.9203C118.953 34.1797 119.727 36.2323 120.436 38.114C121.536 41.0321 122.481 43.5394 125.099 45.7701L125.226 45.8136C127.072 46.4504 127.808 46.7041 129.593 45.526ZM131.648 75.8418C130.979 73.7626 129.611 72.7372 127.855 72.7358C123.991 72.7328 118.249 77.6837 113.948 87.2645C115.307 89.9752 117.956 91.2034 120.652 92.2312C120.132 90.456 121.309 87.1176 123.556 83.9895C126.398 80.0416 129.974 77.7501 131.544 78.8712C131.762 79.028 131.934 79.2474 132.056 79.5256C132.132 78.2996 132.042 77.0664 131.648 75.8418ZM161.328 87.0565C160.953 86.8536 160.496 86.744 159.976 86.73C156.341 86.6287 149.672 91.1826 146.956 100.919L149.524 103.379C149.768 101.956 150.838 99.9344 152.369 98.0069C154.868 94.8633 157.821 92.9079 158.964 93.6397C159.111 93.7374 159.222 93.8787 159.296 94.0615C161.184 91.0088 162.353 88.2339 161.328 87.0565ZM127.403 114.224C127.249 114.198 127.093 114.172 126.936 114.145L125.568 115.584C124.504 117.036 124.359 118.206 124.324 119.913L128.068 121.815L129.888 120.575L129.653 122.073C130.513 123.638 132.028 123.967 133.648 124.099C134.583 123.258 135.205 122.262 135.714 121.124C135.902 120.504 135.874 119.187 135.874 119.187C134.719 118.033 133.366 117.101 132.019 116.174C131.675 115.937 131.332 115.701 130.993 115.461C129.885 114.638 128.698 114.44 127.403 114.224ZM47.1577 131.905C47.8162 127.977 45.4601 126.097 42.8029 126.049C38.0661 125.962 32.3698 131.697 41.073 142.028L41.959 138.401L42.9277 133.989L47.1577 131.905ZM58.4035 145.559C57.2203 144.238 53.4548 142.22 50.1014 142.341C47.4933 142.436 46.135 143.547 45.434 147.56C42.4906 163.697 65.1223 171.434 65.5236 171.559L85.009 172.4C95.7885 172.202 106.405 173.405 117.015 175.174C122.943 175.267 122.832 173.572 119.331 170.016C119.491 169.958 119.782 169.889 120.145 169.802C121.129 169.568 122.646 169.207 123.559 168.585C124.07 168.237 124.2 167.43 124.244 167.108C124.37 166.184 123.328 165.31 122.346 164.485C121.918 164.127 121.502 163.777 121.198 163.437C121.985 161.925 121.778 160.356 121.451 158.765L111.907 158.208L110.889 153.214L107.398 153.357C106.358 153.4 106.276 153.796 106.111 154.596C105.855 155.839 105.397 158.056 100.836 161.432C97.2059 163.255 92.6681 164.879 87.9413 165.027C80.8874 165.247 73.4254 163.033 68.0372 160.142C66.9769 159.573 65.5772 157.063 63.9438 154.133C62.2983 151.182 60.4156 147.805 58.4035 145.559Z" fill="black"/>
</svg>
