<svg width="350" height="77" viewBox="0 0 350 77" fill="none" xmlns="http://www.w3.org/2000/svg">
<path fill-rule="evenodd" clip-rule="evenodd" d="M37.5959 77C32.6587 77 27.7699 76.0042 23.2086 74.0694C18.6472 72.1345 14.5027 69.2987 11.0116 65.7236C7.52048 62.1485 4.75119 57.9043 2.86182 53.2333C0.972446 48.5623 0 43.5559 0 38.5C0 33.4441 0.972448 28.4377 2.86182 23.7667C4.75119 19.0956 7.52049 14.8514 11.0116 11.2764C14.5027 7.70133 18.6472 4.86544 23.2086 2.93064C27.7699 0.995831 32.6587 0 37.5959 0H137.404C142.341 0 147.23 0.995832 151.791 2.93064C156.353 4.86544 160.497 7.70133 163.988 11.2764C167.48 14.8514 170.249 19.0957 172.138 23.7667C174.028 28.4377 175 33.4441 175 38.5C175 43.5559 174.028 48.5623 172.138 53.2333C170.249 57.9043 167.48 62.1486 163.988 65.7236C160.497 69.2987 156.353 72.1346 151.791 74.0694C147.23 76.0042 142.341 77 137.404 77H37.5959Z" fill="url(#paint0_linear_98_1600)"/>
<path fill-rule="evenodd" clip-rule="evenodd" d="M23.7225 4.18353C28.1209 2.32934 32.8351 1.375 37.596 1.375H137.404C142.165 1.375 146.879 2.32934 151.278 4.18353C155.676 6.03772 159.673 8.75545 163.039 12.1815C166.405 15.6076 169.076 19.675 170.898 24.1514C172.72 28.6278 173.657 33.4256 173.657 38.2708C173.657 43.1161 172.72 47.9139 170.898 52.3903C169.076 56.8667 166.405 60.934 163.039 64.3601C159.673 67.7862 155.676 70.504 151.278 72.3581C146.879 74.2123 142.165 75.1667 137.404 75.1667H37.596C32.8351 75.1667 28.1209 74.2123 23.7225 72.3581C19.324 70.504 15.3275 67.7862 11.9611 64.3601C8.59467 60.934 5.92428 56.8667 4.10238 52.3903C2.28049 47.9139 1.34277 43.1161 1.34277 38.2708C1.34277 33.4256 2.28049 28.6278 4.10238 24.1514C5.92428 19.675 8.59467 15.6076 11.9611 12.1815C15.3275 8.75545 19.324 6.03772 23.7225 4.18353Z" fill="url(#paint1_linear_98_1600)"/>
<path fill-rule="evenodd" clip-rule="evenodd" d="M24.2361 5.45386C28.4717 3.66877 33.0113 2.75 37.5958 2.75H137.404C141.988 2.75 146.528 3.66877 150.764 5.45386C154.999 7.23895 158.848 9.8554 162.089 13.1538C165.331 16.4522 167.903 20.368 169.657 24.6776C171.411 28.9872 172.314 33.6062 172.314 38.2708C172.314 42.9355 171.411 47.5545 169.657 51.8641C167.903 56.1736 165.331 60.0894 162.089 63.3878C158.848 66.6863 154.999 69.3027 150.764 71.0878C146.528 72.8729 141.988 73.7917 137.404 73.7917H37.5958C33.0113 73.7917 28.4717 72.8729 24.2361 71.0878C20.0006 69.3027 16.1521 66.6863 12.9103 63.3878C9.66861 60.0894 7.09712 56.1736 5.34271 51.8641C3.58829 47.5545 2.6853 42.9355 2.6853 38.2708C2.6853 33.6062 3.58829 28.9872 5.34271 24.6776C7.09712 20.368 9.66861 16.4522 12.9103 13.1538C16.1521 9.8554 20.0006 7.23895 24.2361 5.45386Z" fill="url(#paint2_linear_98_1600)"/>
<path fill-rule="evenodd" clip-rule="evenodd" d="M37.5958 8.25C33.7166 8.25 29.8754 9.02651 26.2915 10.5352C22.7075 12.0439 19.4511 14.2552 16.7081 17.0429C13.9651 19.8306 11.7892 23.1401 10.3047 26.7824C8.82022 30.4247 8.05615 34.3284 8.05615 38.2708C8.05615 42.2132 8.82022 46.117 10.3047 49.7593C11.7892 53.4016 13.9651 56.7111 16.7081 59.4988C19.4511 62.2865 22.7075 64.4978 26.2915 66.0065C29.8754 67.5152 33.7166 68.2917 37.5958 68.2917H137.404C141.283 68.2917 145.124 67.5152 148.708 66.0065C152.292 64.4978 155.549 62.2865 158.292 59.4988C161.035 56.7111 163.211 53.4016 164.695 49.7593C166.18 46.117 166.944 42.2132 166.944 38.2708C166.944 34.3284 166.18 30.4247 164.695 26.7824C163.211 23.1401 161.035 19.8306 158.292 17.0429C155.549 14.2552 152.292 12.0439 148.708 10.5352C145.124 9.02651 141.283 8.25 137.404 8.25H37.5958Z" fill="url(#paint3_linear_98_1600)"/>
<path fill-rule="evenodd" clip-rule="evenodd" d="M37.5959 9.625C33.893 9.625 30.2264 10.3659 26.8054 11.8055C23.3843 13.2451 20.2759 15.3552 17.6576 18.0152C15.0393 20.6752 12.9623 23.8331 11.5453 27.3085C10.1283 30.784 9.39893 34.509 9.39893 38.2708C9.39893 42.0327 10.1283 45.7576 11.5453 49.2331C12.9623 52.7086 15.0393 55.8665 17.6576 58.5265C20.2759 61.1865 23.3843 63.2965 26.8054 64.7361C30.2264 66.1757 33.893 66.9167 37.5959 66.9167H137.404C141.107 66.9167 144.774 66.1757 148.195 64.7361C151.616 63.2965 154.724 61.1865 157.342 58.5265C159.961 55.8665 162.038 52.7086 163.455 49.2331C164.872 45.7576 165.601 42.0327 165.601 38.2708C165.601 34.509 164.872 30.784 163.455 27.3085C162.038 23.8331 159.961 20.6752 157.342 18.0152C154.724 15.3552 151.616 13.2451 148.195 11.8055C144.774 10.3659 141.107 9.625 137.404 9.625H37.5959Z" fill="url(#paint4_linear_98_1600)"/>
<path fill-rule="evenodd" clip-rule="evenodd" d="M37.5959 9.625C33.893 9.625 30.2264 10.3659 26.8054 11.8055C23.3843 13.2451 20.2759 15.3552 17.6576 18.0152C15.0393 20.6752 12.9623 23.8331 11.5453 27.3085C10.1283 30.784 9.39893 34.509 9.39893 38.2708C9.39893 42.0327 10.1283 45.7576 11.5453 49.2331C12.9623 52.7086 15.0393 55.8665 17.6576 58.5265C20.2759 61.1865 23.3843 63.2965 26.8054 64.7361C30.2264 66.1757 33.893 66.9167 37.5959 66.9167H137.404C141.107 66.9167 144.774 66.1757 148.195 64.7361C151.616 63.2965 154.724 61.1865 157.342 58.5265C159.961 55.8665 162.038 52.7086 163.455 49.2331C164.872 45.7576 165.601 42.0327 165.601 38.2708C165.601 34.509 164.872 30.784 163.455 27.3085C162.038 23.8331 159.961 20.6752 157.342 18.0152C154.724 15.3552 151.616 13.2451 148.195 11.8055C144.774 10.3659 141.107 9.625 137.404 9.625H37.5959Z" fill="url(#paint5_linear_98_1600)"/>
<path fill-rule="evenodd" clip-rule="evenodd" d="M110.565 9.625H37.5959C33.893 9.625 30.2264 10.3659 26.8054 11.8055C23.3843 13.2451 20.2759 15.3552 17.6576 18.0152C15.0393 20.6752 12.9623 23.8331 11.5453 27.3085C10.1283 30.784 9.39893 34.509 9.39893 38.2708C9.39893 42.0327 10.1283 45.7576 11.5453 49.2331C12.9623 52.7086 15.0393 55.8665 17.6576 58.5265C20.2759 61.1865 23.3843 63.2965 26.8054 64.7361C30.2264 66.1757 33.893 66.9167 37.5959 66.9167H102.658C103.446 66.5978 104.223 66.2244 104.986 65.7971C107.927 64.1502 110.599 61.7364 112.85 58.6933C115.1 55.6503 116.886 52.0376 118.104 48.0617C119.322 44.0857 119.949 39.8244 119.949 35.5208C119.949 31.2173 119.322 26.9559 118.104 22.98C116.886 19.004 115.1 15.3914 112.85 12.3484C112.129 11.3746 111.366 10.4654 110.565 9.625Z" fill="url(#paint6_linear_98_1600)"/>
<ellipse cx="13.8609" cy="9.06988" rx="13.8609" ry="9.06988" transform="matrix(0.734971 -0.678099 0.660542 0.750789 11.1892 28.4231)" fill="url(#paint7_linear_98_1600)"/>
<path fill-rule="evenodd" clip-rule="evenodd" d="M212.596 77C207.659 77 202.77 76.0042 198.209 74.0694C193.647 72.1345 189.503 69.2987 186.012 65.7236C182.52 62.1485 179.751 57.9043 177.862 53.2333C175.972 48.5623 175 43.5559 175 38.5C175 33.4441 175.972 28.4377 177.862 23.7667C179.751 19.0956 182.52 14.8514 186.012 11.2764C189.503 7.70133 193.647 4.86544 198.209 2.93064C202.77 0.995831 207.659 0 212.596 0H312.404C317.341 0 322.23 0.995832 326.791 2.93064C331.353 4.86544 335.497 7.70133 338.988 11.2764C342.48 14.8514 345.249 19.0957 347.138 23.7667C349.028 28.4377 350 33.4441 350 38.5C350 43.5559 349.028 48.5623 347.138 53.2333C345.249 57.9043 342.48 62.1486 338.988 65.7236C335.497 69.2987 331.353 72.1346 326.791 74.0694C322.23 76.0042 317.341 77 312.404 77H212.596Z" fill="url(#paint8_linear_98_1600)"/>
<path fill-rule="evenodd" clip-rule="evenodd" d="M198.722 4.18353C203.121 2.32934 207.835 1.375 212.596 1.375H312.404C317.165 1.375 321.879 2.32934 326.278 4.18353C330.676 6.03772 334.673 8.75545 338.039 12.1815C341.405 15.6076 344.076 19.675 345.898 24.1514C347.72 28.6278 348.657 33.4256 348.657 38.2708C348.657 43.1161 347.72 47.9139 345.898 52.3903C344.076 56.8667 341.405 60.934 338.039 64.3601C334.673 67.7862 330.676 70.504 326.278 72.3581C321.879 74.2123 317.165 75.1667 312.404 75.1667H212.596C207.835 75.1667 203.121 74.2123 198.722 72.3581C194.324 70.504 190.328 67.7862 186.961 64.3601C183.595 60.934 180.924 56.8667 179.102 52.3903C177.28 47.9139 176.343 43.1161 176.343 38.2708C176.343 33.4256 177.28 28.6278 179.102 24.1514C180.924 19.675 183.595 15.6076 186.961 12.1815C190.328 8.75545 194.324 6.03772 198.722 4.18353Z" fill="url(#paint9_linear_98_1600)"/>
<path fill-rule="evenodd" clip-rule="evenodd" d="M199.236 5.45386C203.472 3.66877 208.012 2.75 212.596 2.75H312.404C316.989 2.75 321.528 3.66877 325.764 5.45386C329.999 7.23895 333.848 9.8554 337.09 13.1538C340.331 16.4522 342.903 20.368 344.657 24.6776C346.412 28.9872 347.315 33.6062 347.315 38.2708C347.315 42.9355 346.412 47.5545 344.657 51.8641C342.903 56.1737 340.331 60.0894 337.09 63.3879C333.848 66.6863 329.999 69.3027 325.764 71.0878C321.528 72.8729 316.989 73.7917 312.404 73.7917H212.596C208.012 73.7917 203.472 72.8729 199.236 71.0878C195.001 69.3027 191.152 66.6863 187.911 63.3879C184.669 60.0894 182.097 56.1737 180.343 51.8641C178.589 47.5545 177.686 42.9355 177.686 38.2708C177.686 33.6062 178.589 28.9872 180.343 24.6776C182.097 20.368 184.669 16.4522 187.911 13.1538C191.152 9.8554 195.001 7.23895 199.236 5.45386Z" fill="url(#paint10_linear_98_1600)"/>
<path fill-rule="evenodd" clip-rule="evenodd" d="M212.596 8.25C208.717 8.25 204.876 9.02651 201.292 10.5352C197.708 12.0439 194.451 14.2552 191.708 17.0429C188.965 19.8306 186.789 23.1401 185.305 26.7824C183.82 30.4247 183.056 34.3284 183.056 38.2708C183.056 42.2132 183.82 46.117 185.305 49.7593C186.789 53.4016 188.965 56.7111 191.708 59.4988C194.451 62.2865 197.708 64.4978 201.292 66.0065C204.876 67.5152 208.717 68.2917 212.596 68.2917L312.404 68.2917C316.283 68.2917 320.125 67.5152 323.709 66.0065C327.292 64.4978 330.549 62.2865 333.292 59.4988C336.035 56.7111 338.211 53.4016 339.695 49.7593C341.18 46.117 341.944 42.2132 341.944 38.2708C341.944 34.3284 341.18 30.4247 339.695 26.7824C338.211 23.1401 336.035 19.8306 333.292 17.0429C330.549 14.2552 327.292 12.0439 323.709 10.5352C320.125 9.02651 316.283 8.25 312.404 8.25H212.596Z" fill="url(#paint11_linear_98_1600)"/>
<path fill-rule="evenodd" clip-rule="evenodd" d="M212.596 9.625C208.893 9.625 205.226 10.3659 201.805 11.8055C198.384 13.2451 195.276 15.3552 192.658 18.0152C190.039 20.6752 187.962 23.8331 186.545 27.3085C185.128 30.784 184.399 34.509 184.399 38.2708C184.399 42.0327 185.128 45.7576 186.545 49.2331C187.962 52.7086 190.039 55.8665 192.658 58.5265C195.276 61.1865 198.384 63.2965 201.805 64.7361C205.226 66.1757 208.893 66.9167 212.596 66.9167H312.404C316.107 66.9167 319.774 66.1757 323.195 64.7361C326.616 63.2965 329.724 61.1865 332.342 58.5265C334.961 55.8665 337.038 52.7086 338.455 49.2331C339.872 45.7576 340.601 42.0327 340.601 38.2708C340.601 34.509 339.872 30.784 338.455 27.3085C337.038 23.8331 334.961 20.6752 332.342 18.0152C329.724 15.3552 326.616 13.2451 323.195 11.8055C319.774 10.3659 316.107 9.625 312.404 9.625H212.596Z" fill="url(#paint12_linear_98_1600)"/>
<path fill-rule="evenodd" clip-rule="evenodd" d="M212.596 9.625C208.893 9.625 205.226 10.3659 201.805 11.8055C198.384 13.2451 195.276 15.3552 192.658 18.0152C190.039 20.6752 187.962 23.8331 186.545 27.3085C185.128 30.784 184.399 34.509 184.399 38.2708C184.399 42.0327 185.128 45.7576 186.545 49.2331C187.962 52.7086 190.039 55.8665 192.658 58.5265C195.276 61.1865 198.384 63.2965 201.805 64.7361C205.226 66.1757 208.893 66.9167 212.596 66.9167H312.404C316.107 66.9167 319.774 66.1757 323.195 64.7361C326.616 63.2965 329.724 61.1865 332.342 58.5265C334.961 55.8665 337.038 52.7086 338.455 49.2331C339.872 45.7576 340.601 42.0327 340.601 38.2708C340.601 34.509 339.872 30.784 338.455 27.3085C337.038 23.8331 334.961 20.6752 332.342 18.0152C329.724 15.3552 326.616 13.2451 323.195 11.8055C319.774 10.3659 316.107 9.625 312.404 9.625H212.596Z" fill="url(#paint13_linear_98_1600)"/>
<path fill-rule="evenodd" clip-rule="evenodd" d="M270.711 9.625H212.596C208.893 9.625 205.226 10.3659 201.805 11.8055C198.384 13.2451 195.276 15.3552 192.658 18.0152C190.039 20.6752 187.962 23.8331 186.545 27.3085C185.128 30.784 184.399 34.509 184.399 38.2708C184.399 42.0327 185.128 45.7576 186.545 49.2331C187.962 52.7086 190.039 55.8665 192.658 58.5265C195.276 61.1865 198.384 63.2965 201.805 64.7361C205.226 66.1757 208.893 66.9167 212.596 66.9167H270.711H277.658C278.446 66.5978 279.223 66.2244 279.986 65.7971C282.927 64.1502 285.599 61.7364 287.85 58.6933C290.1 55.6503 291.886 52.0376 293.104 48.0617C294.322 44.0857 294.949 39.8244 294.949 35.5208C294.949 31.2173 294.322 26.9559 293.104 22.98C291.886 19.004 290.1 15.3914 287.85 12.3484C287.129 11.3746 286.366 10.4654 285.565 9.625H270.711Z" fill="url(#paint14_linear_98_1600)"/>
<ellipse cx="13.8609" cy="9.06988" rx="13.8609" ry="9.06988" transform="matrix(0.734971 -0.678099 0.660542 0.750789 186.189 28.4231)" fill="url(#paint15_linear_98_1600)"/>
<defs>
<linearGradient id="paint0_linear_98_1600" x1="87.5" y1="0" x2="87.5" y2="77" gradientUnits="userSpaceOnUse">
<stop/>
<stop offset="1" stop-color="white"/>
</linearGradient>
<linearGradient id="paint1_linear_98_1600" x1="87.5001" y1="1.375" x2="87.5001" y2="75.1667" gradientUnits="userSpaceOnUse">
<stop stop-color="#DADADA"/>
<stop offset="1" stop-color="#EEEEEE"/>
</linearGradient>
<linearGradient id="paint2_linear_98_1600" x1="87.4999" y1="2.75" x2="87.4999" y2="73.7917" gradientUnits="userSpaceOnUse">
<stop stop-color="white"/>
<stop offset="1" stop-color="#DADADA"/>
</linearGradient>
<linearGradient id="paint3_linear_98_1600" x1="87.4999" y1="8.25" x2="87.4999" y2="68.2917" gradientUnits="userSpaceOnUse">
<stop stop-color="#E51616"/>
<stop offset="1" stop-color="#851111"/>
</linearGradient>
<linearGradient id="paint4_linear_98_1600" x1="87.4999" y1="9.625" x2="87.4999" y2="66.9167" gradientUnits="userSpaceOnUse">
<stop stop-color="#851111"/>
<stop offset="1" stop-color="#E51616"/>
</linearGradient>
<linearGradient id="paint5_linear_98_1600" x1="87.4999" y1="9.625" x2="87.4999" y2="66.9167" gradientUnits="userSpaceOnUse">
<stop stop-color="#851111"/>
<stop offset="1" stop-color="#E51616"/>
</linearGradient>
<linearGradient id="paint6_linear_98_1600" x1="52.8132" y1="2.75" x2="52.8132" y2="60.9583" gradientUnits="userSpaceOnUse">
<stop stop-color="#851111"/>
<stop offset="1" stop-color="#E51616"/>
</linearGradient>
<linearGradient id="paint7_linear_98_1600" x1="13.8609" y1="0" x2="13.8609" y2="18.1398" gradientUnits="userSpaceOnUse">
<stop stop-color="#F81F1F" stop-opacity="0.63"/>
<stop offset="1" stop-color="#9B0101" stop-opacity="0"/>
</linearGradient>
<linearGradient id="paint8_linear_98_1600" x1="262.5" y1="0" x2="262.5" y2="77" gradientUnits="userSpaceOnUse">
<stop/>
<stop offset="1" stop-color="white"/>
</linearGradient>
<linearGradient id="paint9_linear_98_1600" x1="262.5" y1="1.375" x2="262.5" y2="75.1667" gradientUnits="userSpaceOnUse">
<stop stop-color="#DADADA"/>
<stop offset="1" stop-color="#EEEEEE"/>
</linearGradient>
<linearGradient id="paint10_linear_98_1600" x1="262.5" y1="2.75" x2="262.5" y2="73.7917" gradientUnits="userSpaceOnUse">
<stop stop-color="white"/>
<stop offset="1" stop-color="#DADADA"/>
</linearGradient>
<linearGradient id="paint11_linear_98_1600" x1="262.5" y1="8.25" x2="262.5" y2="68.2917" gradientUnits="userSpaceOnUse">
<stop stop-color="#E51616"/>
<stop offset="1" stop-color="#851111"/>
</linearGradient>
<linearGradient id="paint12_linear_98_1600" x1="262.5" y1="9.625" x2="262.5" y2="66.9167" gradientUnits="userSpaceOnUse">
<stop stop-color="#851111"/>
<stop offset="1" stop-color="#E51616"/>
</linearGradient>
<linearGradient id="paint13_linear_98_1600" x1="262.5" y1="9.625" x2="262.5" y2="66.9167" gradientUnits="userSpaceOnUse">
<stop stop-color="#460404"/>
<stop offset="1" stop-color="#9D0E0E"/>
</linearGradient>
<linearGradient id="paint14_linear_98_1600" x1="227.813" y1="2.75" x2="227.813" y2="60.9583" gradientUnits="userSpaceOnUse">
<stop stop-color="#831919" stop-opacity="0"/>
<stop offset="1" stop-color="#831919"/>
</linearGradient>
<linearGradient id="paint15_linear_98_1600" x1="13.8609" y1="0" x2="13.8609" y2="18.1398" gradientUnits="userSpaceOnUse">
<stop stop-color="#F81F1F" stop-opacity="0.16"/>
<stop offset="1" stop-color="#E51616" stop-opacity="0"/>
</linearGradient>
</defs>
</svg>
