<svg width="128" height="64" viewBox="0 0 128 64" fill="none" xmlns="http://www.w3.org/2000/svg">
<path d="M104.571 40.5714H126V49.1429H113.143V62H104.571V40.5714ZM66 40.5714H87.4286V62H78.8571V49.1429H66V40.5714ZM78.8571 2H87.4286V23.4286H66V14.8571H78.8571V2ZM126 14.8571V23.4286H104.571V2H113.143V14.8571H126Z" fill="black"/>
<path d="M2 2H23.4286V10.5714H10.5714V23.4286H2V2ZM40.5714 2H62V23.4286H53.4286V10.5714H40.5714V2ZM53.4286 40.5714H62V62H40.5714V53.4286H53.4286V40.5714ZM23.4286 53.4286V62H2V40.5714H10.5714V53.4286H23.4286Z" fill="black"/>
</svg>
